{
    "code": "200",
    "data":
    {
        "pagination":
        {
            "page": 2,
            "size": 8,
            "totalPage": 13,
            "total": 100
        },
        "result": [
        {
            "id": 1259010,
            "listPicUrl": "http://yanxuan.nosdn.127.net/dd4403515cd48cf6706d9838f424560d.png",
            "primaryPicUrl": "http://yanxuan.nosdn.127.net/97962384e8c4e75a97693c622e0396a8.png",
            "scenePicUrl": "http://yanxuan.nosdn.127.net/ff4d47462a55c5002d22c1bd93b2fba9.jpg",
            "name": "小绅士灯芯绒长裤",
            "retailPrice": 69.00,
            "unitPrice": null,
            "simpleDesc": "双层灯芯绒 厚实保暖",
            "sellVolume": 1458,
            "tagId": 1043000,
            "tagName": "法国Jacadi制造商",
            "newItemFlag": true,
            "status": 2,
            "rcmdVer": null,
            "pieceNum": 0,
            "pieceUnitDesc": "件",
            "colorNum": 0,
            "productPlace": "",
            "primarySkuPreSellPrice": 0,
            "primarySkuPreSellStatus": 0,
            "limitedFlag": 0,
            "promTag": "",
            "itemTagList": [
            {
                "type": 1,
                "name": "新品",
                "tagId": 0,
                "itemId": 0
            }],
            "recommendDesc": null,
            "counterPrice": 0
        },
        {
            "id": 1176022,
            "listPicUrl": "http://yanxuan.nosdn.127.net/fbcaefa685184faaaa305a0d9444672a.jpg",
            "primaryPicUrl": "http://yanxuan.nosdn.127.net/f9964d0b2d07afbee059762d9fe29d1d.jpg",
            "scenePicUrl": "http://yanxuan.nosdn.127.net/b81700f87ab7d7fd1a3bebdd0c465cee.jpg",
            "name": "全棉几何撞色绗缝四件套",
            "retailPrice": 499.00,
            "unitPrice": null,
            "simpleDesc": "加厚绗缝，温暖秋冬",
            "sellVolume": 983,
            "tagId": 0,
            "tagName": null,
            "newItemFlag": true,
            "status": 2,
            "rcmdVer": null,
            "pieceNum": 0,
            "pieceUnitDesc": "件",
            "colorNum": 3,
            "productPlace": "",
            "primarySkuPreSellPrice": 0,
            "primarySkuPreSellStatus": 0,
            "limitedFlag": 0,
            "promTag": "",
            "itemTagList": [
            {
                "type": 1,
                "name": "新品",
                "tagId": 0,
                "itemId": 0
            }],
            "recommendDesc": null,
            "counterPrice": 0
        },
        {
            "id": 1164024,
            "listPicUrl": "http://yanxuan.nosdn.127.net/ef4f92d7ceb217431b1572f767df8e5e.png",
            "primaryPicUrl": "http://yanxuan.nosdn.127.net/f82b5375d0831e3e07ce5bdadb0dbf48.png",
            "scenePicUrl": "http://yanxuan.nosdn.127.net/14e84425b60d202fe0886966e0887c59.jpg",
            "name": "设计师款 女式波点立领睡裙",
            "retailPrice": 209.00,
            "unitPrice": null,
            "simpleDesc": "独具中式古典气息的浪漫居家服",
            "sellVolume": 6352,
            "tagId": 0,
            "tagName": null,
            "newItemFlag": true,
            "status": 2,
            "rcmdVer": null,
            "pieceNum": 0,
            "pieceUnitDesc": "件",
            "colorNum": 0,
            "productPlace": "",
            "primarySkuPreSellPrice": 0,
            "primarySkuPreSellStatus": 0,
            "limitedFlag": 0,
            "promTag": "",
            "itemTagList": [
            {
                "type": 1,
                "name": "新品",
                "tagId": 0,
                "itemId": 0
            }],
            "recommendDesc": null,
            "counterPrice": 0
        },
        {
            "id": 1283002,
            "listPicUrl": "http://yanxuan.nosdn.127.net/e04d0dc58fe66cfaf7b09726de2b2b5f.png",
            "primaryPicUrl": "http://yanxuan.nosdn.127.net/6c9790b9bba6ea84b0aeee4bb095e719.png",
            "scenePicUrl": "http://yanxuan.nosdn.127.net/8f679be8a247be38e19f038e1684356e.jpg",
            "name": "厚底休闲女士乐福鞋",
            "retailPrice": 239.00,
            "unitPrice": null,
            "simpleDesc": "增高厚底，如履平地",
            "sellVolume": 1758,
            "tagId": 1001039,
            "tagName": "MK制造商",
            "newItemFlag": true,
            "status": 2,
            "rcmdVer": null,
            "pieceNum": 0,
            "pieceUnitDesc": "件",
            "colorNum": 0,
            "productPlace": "",
            "primarySkuPreSellPrice": 0,
            "primarySkuPreSellStatus": 0,
            "limitedFlag": 0,
            "promTag": "",
            "itemTagList": [
            {
                "type": 1,
                "name": "新品",
                "tagId": 0,
                "itemId": 0
            }],
            "recommendDesc": null,
            "counterPrice": 0
        },
        {
            "id": 1283014,
            "listPicUrl": "http://yanxuan.nosdn.127.net/98c35524c57c6be166f0746a045ceb7a.png",
            "primaryPicUrl": "http://yanxuan.nosdn.127.net/9bc7a3465d75e63c54dcb5046ea62449.png",
            "scenePicUrl": "http://yanxuan.nosdn.127.net/622bc78b8b1158fad94a83eb8343206a.jpg",
            "name": "蝴蝶结女士乐福鞋",
            "retailPrice": 239.00,
            "unitPrice": null,
            "simpleDesc": "MK同厂制造，舒适透气",
            "sellVolume": 1825,
            "tagId": 1001039,
            "tagName": "MK制造商",
            "newItemFlag": true,
            "status": 2,
            "rcmdVer": null,
            "pieceNum": 0,
            "pieceUnitDesc": "件",
            "colorNum": 0,
            "productPlace": "",
            "primarySkuPreSellPrice": 0,
            "primarySkuPreSellStatus": 0,
            "limitedFlag": 0,
            "promTag": "",
            "itemTagList": [
            {
                "type": 1,
                "name": "新品",
                "tagId": 0,
                "itemId": 0
            }],
            "recommendDesc": null,
            "counterPrice": 0
        },
        {
            "id": 1270000,
            "listPicUrl": "http://yanxuan.nosdn.127.net/db6fdd6d453133e546fb04d9036ba5e5.png",
            "primaryPicUrl": "http://yanxuan.nosdn.127.net/995f002124b229f83b87d796bc85f4ef.png",
            "scenePicUrl": "http://yanxuan.nosdn.127.net/a007766afeec9ce8b444bb884157220e.jpg",
            "name": "星月流沙手机壳",
            "retailPrice": 39.00,
            "unitPrice": null,
            "simpleDesc": "星光闪烁，秋月鎏光",
            "sellVolume": 158,
            "tagId": 0,
            "tagName": null,
            "newItemFlag": true,
            "status": 2,
            "rcmdVer": null,
            "pieceNum": 0,
            "pieceUnitDesc": "件",
            "colorNum": 0,
            "productPlace": "",
            "primarySkuPreSellPrice": 39.00,
            "primarySkuPreSellStatus": 1,
            "limitedFlag": 0,
            "promTag": "",
            "itemTagList": [
            {
                "type": 1,
                "name": "新品",
                "tagId": 0,
                "itemId": 0
            }],
            "recommendDesc": null,
            "counterPrice": 0
        },
        {
            "id": 1290000,
            "listPicUrl": "http://yanxuan.nosdn.127.net/f65b2dcc03a4c5329c8b5e5b1cdb7c3c.png",
            "primaryPicUrl": "http://yanxuan.nosdn.127.net/22426b8b383d86f4ef8579c590556474.png",
            "scenePicUrl": "http://yanxuan.nosdn.127.net/dc5c8b193f158249e63aef5555321647.jpg",
            "name": "秋月鎏光 星空伞",
            "retailPrice": 109.00,
            "unitPrice": null,
            "simpleDesc": "内花设计，星空烂漫",
            "sellVolume": 877,
            "tagId": 0,
            "tagName": null,
            "newItemFlag": true,
            "status": 2,
            "rcmdVer": null,
            "pieceNum": 0,
            "pieceUnitDesc": "件",
            "colorNum": 0,
            "productPlace": "",
            "primarySkuPreSellPrice": 109.00,
            "primarySkuPreSellStatus": 1,
            "limitedFlag": 0,
            "promTag": "",
            "itemTagList": [
            {
                "type": 1,
                "name": "新品",
                "tagId": 0,
                "itemId": 0
            }],
            "recommendDesc": null,
            "counterPrice": 0
        },
        {
            "id": 1282024,
            "listPicUrl": "http://yanxuan.nosdn.127.net/6ba62d92285c35847537fd0a96e56216.png",
            "primaryPicUrl": "http://yanxuan.nosdn.127.net/00a66018b92ca4bd4ac1bb207086082d.png",
            "scenePicUrl": "http://yanxuan.nosdn.127.net/d31f0039428e1cc07a83abf19457b14a.jpg",
            "name": "苏打夹心饼干270克",
            "retailPrice": 15.80,
            "unitPrice": null,
            "simpleDesc": "口口酥脆，果味浓香",
            "sellVolume": 6144,
            "tagId": 0,
            "tagName": null,
            "newItemFlag": true,
            "status": 2,
            "rcmdVer": null,
            "pieceNum": 0,
            "pieceUnitDesc": "件",
            "colorNum": 0,
            "productPlace": "",
            "primarySkuPreSellPrice": 0,
            "primarySkuPreSellStatus": 0,
            "limitedFlag": 0,
            "promTag": "",
            "itemTagList": [
            {
                "type": 1,
                "name": "新品",
                "tagId": 0,
                "itemId": 0
            }],
            "recommendDesc": null,
            "counterPrice": 0
        }]
    }
}
